%YAML 1.1
%TAG !u! tag:unity3d.com,2011:
--- !u!1001 &4938350710833773041
PrefabInstance:
  m_ObjectHideFlags: 0
  serializedVersion: 2
  m_Modification:
    m_TransformParent: {fileID: 0}
    m_Modifications:
    - target: {fileID: 6715543225290127838, guid: 5644d93b8921e1a41b97ab1b9598f497,
        type: 3}
      propertyPath: m_Name
      value: BladeFinal Variant
      objectReference: {fileID: 0}
    - target: {fileID: 6715543225290127838, guid: 5644d93b8921e1a41b97ab1b9598f497,
        type: 3}
      propertyPath: m_TagString
      value: Interactive
      objectReference: {fileID: 0}
    - target: {fileID: 6715543225290127838, guid: 5644d93b8921e1a41b97ab1b9598f497,
        type: 3}
      propertyPath: m_IsActive
      value: 0
      objectReference: {fileID: 0}
    - target: {fileID: 6715543225290127834, guid: 5644d93b8921e1a41b97ab1b9598f497,
        type: 3}
      propertyPath: m_LocalPosition.x
      value: 2.77
      objectReference: {fileID: 0}
    - target: {fileID: 6715543225290127834, guid: 5644d93b8921e1a41b97ab1b9598f497,
        type: 3}
      propertyPath: m_LocalPosition.y
      value: -1.468
      objectReference: {fileID: 0}
    - target: {fileID: 6715543225290127834, guid: 5644d93b8921e1a41b97ab1b9598f497,
        type: 3}
      propertyPath: m_LocalPosition.z
      value: 0
      objectReference: {fileID: 0}
    - target: {fileID: 6715543225290127834, guid: 5644d93b8921e1a41b97ab1b9598f497,
        type: 3}
      propertyPath: m_LocalRotation.x
      value: 0
      objectReference: {fileID: 0}
    - target: {fileID: 6715543225290127834, guid: 5644d93b8921e1a41b97ab1b9598f497,
        type: 3}
      propertyPath: m_LocalRotation.y
      value: -0
      objectReference: {fileID: 0}
    - target: {fileID: 6715543225290127834, guid: 5644d93b8921e1a41b97ab1b9598f497,
        type: 3}
      propertyPath: m_LocalRotation.z
      value: -0
      objectReference: {fileID: 0}
    - target: {fileID: 6715543225290127834, guid: 5644d93b8921e1a41b97ab1b9598f497,
        type: 3}
      propertyPath: m_LocalRotation.w
      value: 1
      objectReference: {fileID: 0}
    - target: {fileID: 6715543225290127834, guid: 5644d93b8921e1a41b97ab1b9598f497,
        type: 3}
      propertyPath: m_RootOrder
      value: 0
      objectReference: {fileID: 0}
    - target: {fileID: 6715543225290127834, guid: 5644d93b8921e1a41b97ab1b9598f497,
        type: 3}
      propertyPath: m_LocalEulerAnglesHint.x
      value: 0
      objectReference: {fileID: 0}
    - target: {fileID: 6715543225290127834, guid: 5644d93b8921e1a41b97ab1b9598f497,
        type: 3}
      propertyPath: m_LocalEulerAnglesHint.y
      value: 0
      objectReference: {fileID: 0}
    - target: {fileID: 6715543225290127834, guid: 5644d93b8921e1a41b97ab1b9598f497,
        type: 3}
      propertyPath: m_LocalEulerAnglesHint.z
      value: 0
      objectReference: {fileID: 0}
    - target: {fileID: 6715543225290127839, guid: 5644d93b8921e1a41b97ab1b9598f497,
        type: 3}
      propertyPath: resonance
      value: 
      objectReference: {fileID: 8300000, guid: 69445cce8a60f47a59a639a565185c15, type: 3}
    - target: {fileID: 6715543225290127839, guid: 5644d93b8921e1a41b97ab1b9598f497,
        type: 3}
      propertyPath: attackSound1
      value: 
      objectReference: {fileID: 8300000, guid: f433dd47bae4e4db5a0518044da14a8d, type: 3}
    - target: {fileID: 6715543225290127839, guid: 5644d93b8921e1a41b97ab1b9598f497,
        type: 3}
      propertyPath: attackSound2
      value: 
      objectReference: {fileID: 8300000, guid: f433dd47bae4e4db5a0518044da14a8d, type: 3}
    - target: {fileID: 4361451792099581937, guid: 5644d93b8921e1a41b97ab1b9598f497,
        type: 3}
      propertyPath: m_LocalPosition.x
      value: 1.109
      objectReference: {fileID: 0}
    - target: {fileID: 4361451792099581937, guid: 5644d93b8921e1a41b97ab1b9598f497,
        type: 3}
      propertyPath: m_LocalPosition.y
      value: 0.398
      objectReference: {fileID: 0}
    - target: {fileID: 3289286819109008942, guid: 5644d93b8921e1a41b97ab1b9598f497,
        type: 3}
      propertyPath: m_Parameters.widthCurve.m_Curve.Array.data[0].time
      value: 0.11111069
      objectReference: {fileID: 0}
    - target: {fileID: 3289286819109008942, guid: 5644d93b8921e1a41b97ab1b9598f497,
        type: 3}
      propertyPath: m_Parameters.widthCurve.m_Curve.Array.data[0].value
      value: 0.012657553
      objectReference: {fileID: 0}
    - target: {fileID: 3289286819109008942, guid: 5644d93b8921e1a41b97ab1b9598f497,
        type: 3}
      propertyPath: m_Parameters.widthCurve.m_Curve.Array.data[1].value
      value: 0.52230835
      objectReference: {fileID: 0}
    - target: {fileID: 3289286819109008942, guid: 5644d93b8921e1a41b97ab1b9598f497,
        type: 3}
      propertyPath: m_Parameters.widthCurve.m_Curve.Array.data[1].time
      value: 0.36571544
      objectReference: {fileID: 0}
    m_RemovedComponents: []
  m_SourcePrefab: {fileID: 100100000, guid: 5644d93b8921e1a41b97ab1b9598f497, type: 3}
