%YAML 1.1
%TAG !u! tag:unity3d.com,2011:
--- !u!1001 &3055234968839080784
PrefabInstance:
  m_ObjectHideFlags: 0
  serializedVersion: 2
  m_Modification:
    m_TransformParent: {fileID: 0}
    m_Modifications:
    - target: {fileID: 3466828278745331571, guid: 03d53ed988824214da80594d281f1b8e,
        type: 3}
      propertyPath: m_Name
      value: Missile 1 (2)
      objectReference: {fileID: 0}
    - target: {fileID: 3466828278745331575, guid: 03d53ed988824214da80594d281f1b8e,
        type: 3}
      propertyPath: m_LocalPosition.x
      value: 0
      objectReference: {fileID: 0}
    - target: {fileID: 3466828278745331575, guid: 03d53ed988824214da80594d281f1b8e,
        type: 3}
      propertyPath: m_LocalPosition.y
      value: 0
      objectReference: {fileID: 0}
    - target: {fileID: 3466828278745331575, guid: 03d53ed988824214da80594d281f1b8e,
        type: 3}
      propertyPath: m_LocalPosition.z
      value: -0.88
      objectReference: {fileID: 0}
    - target: {fileID: 3466828278745331575, guid: 03d53ed988824214da80594d281f1b8e,
        type: 3}
      propertyPath: m_LocalRotation.x
      value: 0
      objectReference: {fileID: 0}
    - target: {fileID: 3466828278745331575, guid: 03d53ed988824214da80594d281f1b8e,
        type: 3}
      propertyPath: m_LocalRotation.y
      value: -0
      objectReference: {fileID: 0}
    - target: {fileID: 3466828278745331575, guid: 03d53ed988824214da80594d281f1b8e,
        type: 3}
      propertyPath: m_LocalRotation.z
      value: -0
      objectReference: {fileID: 0}
    - target: {fileID: 3466828278745331575, guid: 03d53ed988824214da80594d281f1b8e,
        type: 3}
      propertyPath: m_LocalRotation.w
      value: 1
      objectReference: {fileID: 0}
    - target: {fileID: 3466828278745331575, guid: 03d53ed988824214da80594d281f1b8e,
        type: 3}
      propertyPath: m_RootOrder
      value: 0
      objectReference: {fileID: 0}
    - target: {fileID: 3466828278745331575, guid: 03d53ed988824214da80594d281f1b8e,
        type: 3}
      propertyPath: m_LocalEulerAnglesHint.x
      value: 0
      objectReference: {fileID: 0}
    - target: {fileID: 3466828278745331575, guid: 03d53ed988824214da80594d281f1b8e,
        type: 3}
      propertyPath: m_LocalEulerAnglesHint.y
      value: 0
      objectReference: {fileID: 0}
    - target: {fileID: 3466828278745331575, guid: 03d53ed988824214da80594d281f1b8e,
        type: 3}
      propertyPath: m_LocalEulerAnglesHint.z
      value: 0
      objectReference: {fileID: 0}
    - target: {fileID: 2057589701, guid: 03d53ed988824214da80594d281f1b8e, type: 3}
      propertyPath: explosion
      value: 
      objectReference: {fileID: 1908055059890894388}
    - target: {fileID: 2057589701, guid: 03d53ed988824214da80594d281f1b8e, type: 3}
      propertyPath: smoke
      value: 
      objectReference: {fileID: 1908055059546030890}
    - target: {fileID: 2057589701, guid: 03d53ed988824214da80594d281f1b8e, type: 3}
      propertyPath: trail
      value: 
      objectReference: {fileID: 1908055060120441745}
    m_RemovedComponents: []
  m_SourcePrefab: {fileID: 100100000, guid: 03d53ed988824214da80594d281f1b8e, type: 3}
--- !u!1 &1908055059890894388 stripped
GameObject:
  m_CorrespondingSourceObject: {fileID: 3466828280419564900, guid: 03d53ed988824214da80594d281f1b8e,
    type: 3}
  m_PrefabInstance: {fileID: 3055234968839080784}
  m_PrefabAsset: {fileID: 0}
--- !u!1 &1908055060120441745 stripped
GameObject:
  m_CorrespondingSourceObject: {fileID: 3466828278568638657, guid: 03d53ed988824214da80594d281f1b8e,
    type: 3}
  m_PrefabInstance: {fileID: 3055234968839080784}
  m_PrefabAsset: {fileID: 0}
--- !u!1 &1908055059546030890 stripped
GameObject:
  m_CorrespondingSourceObject: {fileID: 3466828280208918650, guid: 03d53ed988824214da80594d281f1b8e,
    type: 3}
  m_PrefabInstance: {fileID: 3055234968839080784}
  m_PrefabAsset: {fileID: 0}
