%YAML 1.1
%TAG !u! tag:unity3d.com,2011:
--- !u!114 &204705241
MonoBehaviour:
  m_ObjectHideFlags: 0
  m_CorrespondingSourceObject: {fileID: 0}
  m_PrefabInstance: {fileID: 0}
  m_PrefabAsset: {fileID: 0}
  m_GameObject: {fileID: 96141979118961427}
  m_Enabled: 1
  m_EditorHideFlags: 0
  m_Script: {fileID: 11500000, guid: 812c31d30f6e8a049b39dc2ae59b9c9b, type: 3}
  m_Name: 
  m_EditorClassIdentifier: 
  preLaunch: {fileID: 8300000, guid: c4d8928c75c21af43998193f0f038429, type: 3}
  Launch: {fileID: 8300000, guid: 03e3bd08a6e70684dbe299a3e185fdd2, type: 3}
  explode: {fileID: 8300000, guid: 7e26c9daf4c32483b9c2790e662d3f1b, type: 3}
  explosion: {fileID: 96141977571608836}
  smoke: {fileID: 96141977915423770}
  trail: {fileID: 96141979563044001}
--- !u!114 &2129396372
MonoBehaviour:
  m_ObjectHideFlags: 0
  m_CorrespondingSourceObject: {fileID: 0}
  m_PrefabInstance: {fileID: 0}
  m_PrefabAsset: {fileID: 0}
  m_GameObject: {fileID: 96141979118961427}
  m_Enabled: 1
  m_EditorHideFlags: 0
  m_Script: {fileID: 11500000, guid: 06f5ec01e13f5f84ebdccba7f47ad444, type: 3}
  m_Name: 
  m_EditorClassIdentifier: 
--- !u!1001 &96141979596155675
PrefabInstance:
  m_ObjectHideFlags: 0
  serializedVersion: 2
  m_Modification:
    m_TransformParent: {fileID: 0}
    m_Modifications:
    - target: {fileID: 0}
      propertyPath: trail
      value: 
      objectReference: {fileID: 3466828278568638657, guid: 03d53ed988824214da80594d281f1b8e,
        type: 3}
    - target: {fileID: 481781768, guid: 593c3c0cbdd3cfb468ac9069cabbb031, type: 3}
      propertyPath: m_Name
      value: MissleFinal
      objectReference: {fileID: 0}
    - target: {fileID: 481781768, guid: 593c3c0cbdd3cfb468ac9069cabbb031, type: 3}
      propertyPath: m_TagString
      value: Interactive
      objectReference: {fileID: 0}
    - target: {fileID: 481781768, guid: 593c3c0cbdd3cfb468ac9069cabbb031, type: 3}
      propertyPath: m_Layer
      value: 8
      objectReference: {fileID: 0}
    - target: {fileID: 1685198593, guid: 593c3c0cbdd3cfb468ac9069cabbb031, type: 3}
      propertyPath: m_Layer
      value: 8
      objectReference: {fileID: 0}
    - target: {fileID: 2029789727, guid: 593c3c0cbdd3cfb468ac9069cabbb031, type: 3}
      propertyPath: m_Layer
      value: 8
      objectReference: {fileID: 0}
    - target: {fileID: 2029789727, guid: 593c3c0cbdd3cfb468ac9069cabbb031, type: 3}
      propertyPath: m_IsActive
      value: 1
      objectReference: {fileID: 0}
    - target: {fileID: 101664698, guid: 593c3c0cbdd3cfb468ac9069cabbb031, type: 3}
      propertyPath: m_Layer
      value: 8
      objectReference: {fileID: 0}
    - target: {fileID: 481781772, guid: 593c3c0cbdd3cfb468ac9069cabbb031, type: 3}
      propertyPath: m_LocalPosition.x
      value: 1.89
      objectReference: {fileID: 0}
    - target: {fileID: 481781772, guid: 593c3c0cbdd3cfb468ac9069cabbb031, type: 3}
      propertyPath: m_LocalPosition.y
      value: 0
      objectReference: {fileID: 0}
    - target: {fileID: 481781772, guid: 593c3c0cbdd3cfb468ac9069cabbb031, type: 3}
      propertyPath: m_LocalPosition.z
      value: 0
      objectReference: {fileID: 0}
    - target: {fileID: 481781772, guid: 593c3c0cbdd3cfb468ac9069cabbb031, type: 3}
      propertyPath: m_LocalRotation.x
      value: 0
      objectReference: {fileID: 0}
    - target: {fileID: 481781772, guid: 593c3c0cbdd3cfb468ac9069cabbb031, type: 3}
      propertyPath: m_LocalRotation.y
      value: -0
      objectReference: {fileID: 0}
    - target: {fileID: 481781772, guid: 593c3c0cbdd3cfb468ac9069cabbb031, type: 3}
      propertyPath: m_LocalRotation.z
      value: -0
      objectReference: {fileID: 0}
    - target: {fileID: 481781772, guid: 593c3c0cbdd3cfb468ac9069cabbb031, type: 3}
      propertyPath: m_LocalRotation.w
      value: 1
      objectReference: {fileID: 0}
    - target: {fileID: 481781772, guid: 593c3c0cbdd3cfb468ac9069cabbb031, type: 3}
      propertyPath: m_RootOrder
      value: 0
      objectReference: {fileID: 0}
    - target: {fileID: 481781772, guid: 593c3c0cbdd3cfb468ac9069cabbb031, type: 3}
      propertyPath: m_LocalEulerAnglesHint.x
      value: 0
      objectReference: {fileID: 0}
    - target: {fileID: 481781772, guid: 593c3c0cbdd3cfb468ac9069cabbb031, type: 3}
      propertyPath: m_LocalEulerAnglesHint.y
      value: 0
      objectReference: {fileID: 0}
    - target: {fileID: 481781772, guid: 593c3c0cbdd3cfb468ac9069cabbb031, type: 3}
      propertyPath: m_LocalEulerAnglesHint.z
      value: 0
      objectReference: {fileID: 0}
    - target: {fileID: 481781772, guid: 593c3c0cbdd3cfb468ac9069cabbb031, type: 3}
      propertyPath: m_LocalScale.x
      value: 1
      objectReference: {fileID: 0}
    - target: {fileID: 481781772, guid: 593c3c0cbdd3cfb468ac9069cabbb031, type: 3}
      propertyPath: m_LocalScale.y
      value: 1
      objectReference: {fileID: 0}
    - target: {fileID: 481781772, guid: 593c3c0cbdd3cfb468ac9069cabbb031, type: 3}
      propertyPath: m_LocalScale.z
      value: 1
      objectReference: {fileID: 0}
    - target: {fileID: 481781770, guid: 593c3c0cbdd3cfb468ac9069cabbb031, type: 3}
      propertyPath: m_Enabled
      value: 0
      objectReference: {fileID: 0}
    - target: {fileID: 2029789728, guid: 593c3c0cbdd3cfb468ac9069cabbb031, type: 3}
      propertyPath: m_LocalPosition.y
      value: 141
      objectReference: {fileID: 0}
    - target: {fileID: 2029789728, guid: 593c3c0cbdd3cfb468ac9069cabbb031, type: 3}
      propertyPath: m_LocalPosition.x
      value: -22
      objectReference: {fileID: 0}
    - target: {fileID: 2029789728, guid: 593c3c0cbdd3cfb468ac9069cabbb031, type: 3}
      propertyPath: m_LocalPosition.z
      value: 17
      objectReference: {fileID: 0}
    - target: {fileID: 7426712486825500206, guid: 593c3c0cbdd3cfb468ac9069cabbb031,
        type: 3}
      propertyPath: m_LocalScale.x
      value: 0.001
      objectReference: {fileID: 0}
    - target: {fileID: 7426712486825500206, guid: 593c3c0cbdd3cfb468ac9069cabbb031,
        type: 3}
      propertyPath: m_LocalScale.y
      value: 0.001
      objectReference: {fileID: 0}
    - target: {fileID: 7426712486825500206, guid: 593c3c0cbdd3cfb468ac9069cabbb031,
        type: 3}
      propertyPath: m_LocalScale.z
      value: 0.001
      objectReference: {fileID: 0}
    - target: {fileID: 7426712486825500206, guid: 593c3c0cbdd3cfb468ac9069cabbb031,
        type: 3}
      propertyPath: m_LocalPosition.z
      value: -0.056
      objectReference: {fileID: 0}
    - target: {fileID: 7426712486825500206, guid: 593c3c0cbdd3cfb468ac9069cabbb031,
        type: 3}
      propertyPath: m_LocalPosition.y
      value: -0.374
      objectReference: {fileID: 0}
    - target: {fileID: 7426712486825500206, guid: 593c3c0cbdd3cfb468ac9069cabbb031,
        type: 3}
      propertyPath: m_LocalRotation.z
      value: -0
      objectReference: {fileID: 0}
    - target: {fileID: 7426712486825500206, guid: 593c3c0cbdd3cfb468ac9069cabbb031,
        type: 3}
      propertyPath: m_LocalRotation.w
      value: 1
      objectReference: {fileID: 0}
    - target: {fileID: 7426712486825500206, guid: 593c3c0cbdd3cfb468ac9069cabbb031,
        type: 3}
      propertyPath: m_LocalPosition.x
      value: -0.011
      objectReference: {fileID: 0}
    - target: {fileID: 7426712486825500206, guid: 593c3c0cbdd3cfb468ac9069cabbb031,
        type: 3}
      propertyPath: m_LocalEulerAnglesHint.z
      value: 0
      objectReference: {fileID: 0}
    - target: {fileID: 7426712486825500206, guid: 593c3c0cbdd3cfb468ac9069cabbb031,
        type: 3}
      propertyPath: m_LocalRotation.x
      value: -0
      objectReference: {fileID: 0}
    - target: {fileID: 7426712486825500206, guid: 593c3c0cbdd3cfb468ac9069cabbb031,
        type: 3}
      propertyPath: m_LocalEulerAnglesHint.x
      value: 0
      objectReference: {fileID: 0}
    - target: {fileID: 7426712486825500206, guid: 593c3c0cbdd3cfb468ac9069cabbb031,
        type: 3}
      propertyPath: m_LocalEulerAnglesHint.y
      value: 0
      objectReference: {fileID: 0}
    - target: {fileID: 7426712486825500206, guid: 593c3c0cbdd3cfb468ac9069cabbb031,
        type: 3}
      propertyPath: m_LocalRotation.y
      value: -0
      objectReference: {fileID: 0}
    - target: {fileID: 7528822445788560618, guid: 593c3c0cbdd3cfb468ac9069cabbb031,
        type: 3}
      propertyPath: m_Layer
      value: 8
      objectReference: {fileID: 0}
    - target: {fileID: 7528822445788560618, guid: 593c3c0cbdd3cfb468ac9069cabbb031,
        type: 3}
      propertyPath: m_TagString
      value: Interactive
      objectReference: {fileID: 0}
    - target: {fileID: 3560616295631995582, guid: 593c3c0cbdd3cfb468ac9069cabbb031,
        type: 3}
      propertyPath: m_Size.y
      value: 282.46735
      objectReference: {fileID: 0}
    - target: {fileID: 3560616295631995582, guid: 593c3c0cbdd3cfb468ac9069cabbb031,
        type: 3}
      propertyPath: m_Center.x
      value: 10.562665
      objectReference: {fileID: 0}
    - target: {fileID: 3560616295631995582, guid: 593c3c0cbdd3cfb468ac9069cabbb031,
        type: 3}
      propertyPath: m_Center.y
      value: 150.5205
      objectReference: {fileID: 0}
    - target: {fileID: 3560616295631995582, guid: 593c3c0cbdd3cfb468ac9069cabbb031,
        type: 3}
      propertyPath: m_Center.z
      value: -2.709113
      objectReference: {fileID: 0}
    - target: {fileID: 3560616295631995582, guid: 593c3c0cbdd3cfb468ac9069cabbb031,
        type: 3}
      propertyPath: m_Size.z
      value: 51.843983
      objectReference: {fileID: 0}
    - target: {fileID: 3560616295631995582, guid: 593c3c0cbdd3cfb468ac9069cabbb031,
        type: 3}
      propertyPath: m_Size.x
      value: 84.85025
      objectReference: {fileID: 0}
    - target: {fileID: 101664700, guid: 593c3c0cbdd3cfb468ac9069cabbb031, type: 3}
      propertyPath: m_Parameters.widthCurve.m_Curve.Array.size
      value: 3
      objectReference: {fileID: 0}
    - target: {fileID: 101664700, guid: 593c3c0cbdd3cfb468ac9069cabbb031, type: 3}
      propertyPath: m_Parameters.widthCurve.m_Curve.Array.data[1].time
      value: 0.29510498
      objectReference: {fileID: 0}
    - target: {fileID: 101664700, guid: 593c3c0cbdd3cfb468ac9069cabbb031, type: 3}
      propertyPath: m_Parameters.widthCurve.m_Curve.Array.data[1].value
      value: 0.5849026
      objectReference: {fileID: 0}
    - target: {fileID: 101664700, guid: 593c3c0cbdd3cfb468ac9069cabbb031, type: 3}
      propertyPath: m_Parameters.widthCurve.m_Curve.Array.data[2].time
      value: 0.63402057
      objectReference: {fileID: 0}
    - target: {fileID: 101664700, guid: 593c3c0cbdd3cfb468ac9069cabbb031, type: 3}
      propertyPath: m_Parameters.widthCurve.m_Curve.Array.data[2].value
      value: 0
      objectReference: {fileID: 0}
    - target: {fileID: 2029789730, guid: 593c3c0cbdd3cfb468ac9069cabbb031, type: 3}
      propertyPath: scalingMode
      value: 0
      objectReference: {fileID: 0}
    - target: {fileID: 2029789730, guid: 593c3c0cbdd3cfb468ac9069cabbb031, type: 3}
      propertyPath: moveWithTransform
      value: 1
      objectReference: {fileID: 0}
    - target: {fileID: 2029789730, guid: 593c3c0cbdd3cfb468ac9069cabbb031, type: 3}
      propertyPath: InitialModule.startSize.scalar
      value: 1000
      objectReference: {fileID: 0}
    m_RemovedComponents:
    - {fileID: 481781771, guid: 593c3c0cbdd3cfb468ac9069cabbb031, type: 3}
  m_SourcePrefab: {fileID: 100100000, guid: 593c3c0cbdd3cfb468ac9069cabbb031, type: 3}
--- !u!1 &96141979118961427 stripped
GameObject:
  m_CorrespondingSourceObject: {fileID: 481781768, guid: 593c3c0cbdd3cfb468ac9069cabbb031,
    type: 3}
  m_PrefabInstance: {fileID: 96141979596155675}
  m_PrefabAsset: {fileID: 0}
--- !u!1 &96141977571608836 stripped
GameObject:
  m_CorrespondingSourceObject: {fileID: 2029789727, guid: 593c3c0cbdd3cfb468ac9069cabbb031,
    type: 3}
  m_PrefabInstance: {fileID: 96141979596155675}
  m_PrefabAsset: {fileID: 0}
--- !u!1 &96141979563044001 stripped
GameObject:
  m_CorrespondingSourceObject: {fileID: 101664698, guid: 593c3c0cbdd3cfb468ac9069cabbb031,
    type: 3}
  m_PrefabInstance: {fileID: 96141979596155675}
  m_PrefabAsset: {fileID: 0}
--- !u!1 &96141977915423770 stripped
GameObject:
  m_CorrespondingSourceObject: {fileID: 1685198593, guid: 593c3c0cbdd3cfb468ac9069cabbb031,
    type: 3}
  m_PrefabInstance: {fileID: 96141979596155675}
  m_PrefabAsset: {fileID: 0}
