%YAML 1.1
%TAG !u! tag:unity3d.com,2011:
--- !u!1001 &8445531229366552911
PrefabInstance:
  m_ObjectHideFlags: 0
  serializedVersion: 2
  m_Modification:
    m_TransformParent: {fileID: 0}
    m_Modifications:
    - target: {fileID: 96141979118961427, guid: ef4782b0656b8f24fa264d97384a513a,
        type: 3}
      propertyPath: m_Name
      value: Missle
      objectReference: {fileID: 0}
    - target: {fileID: 96141979118961431, guid: ef4782b0656b8f24fa264d97384a513a,
        type: 3}
      propertyPath: m_LocalPosition.x
      value: 1.89
      objectReference: {fileID: 0}
    - target: {fileID: 96141979118961431, guid: ef4782b0656b8f24fa264d97384a513a,
        type: 3}
      propertyPath: m_LocalPosition.y
      value: 0
      objectReference: {fileID: 0}
    - target: {fileID: 96141979118961431, guid: ef4782b0656b8f24fa264d97384a513a,
        type: 3}
      propertyPath: m_LocalPosition.z
      value: 0
      objectReference: {fileID: 0}
    - target: {fileID: 96141979118961431, guid: ef4782b0656b8f24fa264d97384a513a,
        type: 3}
      propertyPath: m_LocalRotation.x
      value: 0
      objectReference: {fileID: 0}
    - target: {fileID: 96141979118961431, guid: ef4782b0656b8f24fa264d97384a513a,
        type: 3}
      propertyPath: m_LocalRotation.y
      value: -0
      objectReference: {fileID: 0}
    - target: {fileID: 96141979118961431, guid: ef4782b0656b8f24fa264d97384a513a,
        type: 3}
      propertyPath: m_LocalRotation.z
      value: -0
      objectReference: {fileID: 0}
    - target: {fileID: 96141979118961431, guid: ef4782b0656b8f24fa264d97384a513a,
        type: 3}
      propertyPath: m_LocalRotation.w
      value: 1
      objectReference: {fileID: 0}
    - target: {fileID: 96141979118961431, guid: ef4782b0656b8f24fa264d97384a513a,
        type: 3}
      propertyPath: m_RootOrder
      value: 0
      objectReference: {fileID: 0}
    - target: {fileID: 96141979118961431, guid: ef4782b0656b8f24fa264d97384a513a,
        type: 3}
      propertyPath: m_LocalEulerAnglesHint.x
      value: 0
      objectReference: {fileID: 0}
    - target: {fileID: 96141979118961431, guid: ef4782b0656b8f24fa264d97384a513a,
        type: 3}
      propertyPath: m_LocalEulerAnglesHint.y
      value: 0
      objectReference: {fileID: 0}
    - target: {fileID: 96141979118961431, guid: ef4782b0656b8f24fa264d97384a513a,
        type: 3}
      propertyPath: m_LocalEulerAnglesHint.z
      value: 0
      objectReference: {fileID: 0}
    m_RemovedComponents: []
  m_SourcePrefab: {fileID: 100100000, guid: ef4782b0656b8f24fa264d97384a513a, type: 3}
